Clustering techniques for time series | Computer Science Notes
…
sta_weekly <-
    sta_data %>% group_by(station) %>%
    mutate(datetime = lubridate::floor_date(datetime, "week")) %>% 
  ungroup()
 
sta_weekly <-
    sta_weekly %>% group_by(station, datetime) %>%
    summarise_if(is.numeric, mean, na.rm = TRUE)

sta_weekly_melted<-sta_weekly %>% 
  mutate(datetime = tsibble::yearweek(datetime)) %>% 
    tidyr::pivot_longer(3:ncol(sta_weekly), names_to = "variable")
sta_weekly_melted

## # A tibble: 8,536 × 4
## # Groups:   station [11]
##    station datetime variable            value
##    <chr>     <week> <chr>               <dbl>
##  1 1       2017 W52 air_temp            26.6 
##  2 1       2017 W52 drew_point           8.51
##  3 1       2017 W52 solar_rad_wm2      328.  
##  4 1       2017 W52 humidity            35.0 
##  5 1       2017 W52 wind_speed_kmh       4.09
##  6 1       2017 W52 wind_direction_deg 183.  
##  7 1       2017 W52 ET0_mm               6.64
##  8 1       2017 W52 pp_mm              NaN   
##  9 1       2018 W01 air_temp            26.4 
## 10 1       2018 W01 drew_point          15.5 
## # … with 8,526 more rows
…
